weight_stationary_SA/test_run_dir/anything_ok_module_name_should_weight_stationary_system_array/wsSA.vcd
$date
2021-12-03T15:19+0000
$end
$version
0.2
$end
$comment

$end
$timescale 1ns  $end
$scope module wsSA $end
 $var wire 8 ' io_i_weight_3 $end
 $var wire 1 ) sys_arr_2_0 $end
 $var wire 1 < sys_arr_1_4 $end
 $var wire 1 B sys_arr_2_3 $end
 $var wire 1 O sys_arr_3_2 $end
 $var wire 8 P io_i_feature_3 $end
 $var wire 1 V sys_arr_4_1 $end
 $var wire 1 Y sys_arr_4_4 $end
 $var wire 8 Z io_i_weight_0 $end
 $var wire 1 v sys_arr_1_1 $end
 $var wire 1 { sys_arr_0_2 $end
 $var wire 8 "& io_i_feature_0 $end
 $var wire 16 "- io_o_result_2 $end
 $var wire 1 "V sys_arr_1_0 $end
 $var wire 8 "h io_i_weight_2 $end
 $var wire 1 "p sys_arr_0_1 $end
 $var wire 1 "z sys_arr_0_4 $end
 $var wire 1 "} sys_arr_2_2 $end
 $var wire 16 #" io_o_result_1 $end
 $var wire 8 ## io_i_feature_2 $end
 $var wire 1 #' sys_arr_3_1 $end
 $var wire 1 #* sys_arr_4_0 $end
 $var wire 1 #- sys_arr_1_3 $end
 $var wire 1 #. sys_arr_4_3 $end
 $var wire 16 #3 io_o_result_4 $end
 $var wire 1 #9 io_i_loading $end
 $var wire 1 #@ sys_arr_3_4 $end
 $var wire 1 #P clock $end
 $var wire 1 #u sys_arr_4_2 $end
 $var wire 1 $! sys_arr_2_4 $end
 $var wire 1 $& sys_arr_3_3 $end
 $var wire 8 $( io_i_feature_4 $end
 $var wire 8 $5 io_i_weight_1 $end
 $var wire 1 $: sys_arr_0_0 $end
 $var wire 1 $V sys_arr_0_3 $end
 $var wire 16 $W io_o_result_0 $end
 $var wire 1 $[ sys_arr_1_2 $end
 $var wire 8 $_ io_i_weight_4 $end
 $var wire 1 $c sys_arr_3_0 $end
 $var wire 1 $d sys_arr_2_1 $end
 $var wire 8 $e io_i_feature_1 $end
 $var wire 1 $i reset $end
 $var wire 16 $u io_o_result_3 $end
  $scope module sys_arr_0_3 $end
   $var wire 16 ! _r_mac_T $end
   $var wire 8 & r_feature $end
   $var wire 1 g clock $end
   $var wire 16 "; io_o_sum $end
   $var wire 16 "C _r_mac_T_2 $end
   $var wire 8 #% io_i_weight $end
   $var wire 17 #; _r_mac_T_1 $end
   $var wire 8 #B io_o_feature $end
   $var wire 16 #Q io_i_sum $end
   $var wire 8 $6 io_i_feature $end
   $var wire 1 $; io_i_loading $end
   $var wire 16 $E r_mac $end
   $var wire 8 %! io_o_weight $end
   $var wire 8 %% r_weight $end
  $upscope $end
  $scope module sys_arr_3_3 $end
   $var wire 8 7 io_o_weight $end
   $var wire 1 "* clock $end
   $var wire 8 "E io_i_weight $end
   $var wire 16 "~ io_i_sum $end
   $var wire 8 #L io_o_feature $end
   $var wire 16 #N _r_mac_T_2 $end
   $var wire 8 #f r_feature $end
   $var wire 8 $O io_i_feature $end
   $var wire 1 $Y io_i_loading $end
   $var wire 16 $] r_mac $end
   $var wire 8 $` r_weight $end
   $var wire 16 $m _r_mac_T $end
   $var wire 16 ${ io_o_sum $end
   $var wire 17 %/ _r_mac_T_1 $end
  $upscope $end
  $scope module sys_arr_0_4 $end
   $var wire 16 Q io_o_sum $end
   $var wire 8 _ r_feature $end
   $var wire 8 x io_i_weight $end
   $var wire 17 "0 _r_mac_T_1 $end
   $var wire 8 "B io_o_feature $end
   $var wire 16 "j io_i_sum $end
   $var wire 16 #X r_mac $end
   $var wire 8 #[ io_i_feature $end
   $var wire 1 #] io_i_loading $end
   $var wire 16 $a _r_mac_T $end
   $var wire 8 $l io_o_weight $end
   $var wire 16 $q _r_mac_T_2 $end
   $var wire 8 %) r_weight $end
   $var wire 1 %+ clock $end
  $upscope $end
  $scope module sys_arr_4_0 $end
   $var wire 8 , io_o_weight $end
   $var wire 8 3 r_feature $end
   $var wire 8 6 io_o_feature $end
   $var wire 8 ; io_i_feature $end
   $var wire 16 G io_o_sum $end
   $var wire 16 "7 r_mac $end
   $var wire 1 "? io_i_loading $end
   $var wire 8 #4 io_i_weight $end
   $var wire 16 #R io_i_sum $end
   $var wire 1 #d clock $end
   $var wire 16 #| _r_mac_T_2 $end
   $var wire 16 $Z _r_mac_T $end
   $var wire 17 $s _r_mac_T_1 $end
   $var wire 8 %& r_weight $end
  $upscope $end
  $scope module sys_arr_1_1 $end
   $var wire 16 0 r_mac $end
   $var wire 17 "" _r_mac_T_1 $end
   $var wire 16 "% io_o_sum $end
   $var wire 8 "X io_i_weight $end
   $var wire 1 "i clock $end
   $var wire 8 #/ r_feature $end
   $var wire 16 #E io_i_sum $end
   $var wire 8 #V io_o_feature $end
   $var wire 8 $J io_i_feature $end
   $var wire 1 $L io_i_loading $end
   $var wire 16 $M _r_mac_T_2 $end
   $var wire 8 $f io_o_weight $end
   $var wire 8 $j r_weight $end
   $var wire 16 %0 _r_mac_T $end
  $upscope $end
  $scope module sys_arr_4_1 $end
   $var wire 16 S r_mac $end
   $var wire 8 r r_feature $end
   $var wire 16 "2 _r_mac_T_2 $end
   $var wire 8 "4 io_i_weight $end
   $var wire 1 ": clock $end
   $var wire 16 "Z io_i_sum $end
   $var wire 16 #` _r_mac_T $end
   $var wire 17 #i _r_mac_T_1 $end
   $var wire 8 $> r_weight $end
   $var wire 8 $\ io_o_feature $end
   $var wire 8 $h io_i_feature $end
   $var wire 1 $k io_i_loading $end
   $var wire 16 $w io_o_sum $end
   $var wire 8 %* io_o_weight $end
  $upscope $end
  $scope module sys_arr_2_0 $end
   $var wire 8 : io_i_weight $end
   $var wire 16 M _r_mac_T_2 $end
   $var wire 16 R r_mac $end
   $var wire 8 c r_feature $end
   $var wire 16 ". io_i_sum $end
   $var wire 17 "< _r_mac_T_1 $end
   $var wire 1 #$ clock $end
   $var wire 8 #_ io_o_feature $end
   $var wire 8 #q r_weight $end
   $var wire 16 #{ _r_mac_T $end
   $var wire 8 $) io_i_feature $end
   $var wire 1 $0 io_i_loading $end
   $var wire 8 $F io_o_weight $end
   $var wire 16 $~ io_o_sum $end
  $upscope $end
  $scope module sys_arr_1_2 $end
   $var wire 16 % io_o_sum $end
   $var wire 8 b io_i_weight $end
   $var wire 1 w clock $end
   $var wire 16 "M io_i_sum $end
   $var wire 8 "k io_o_feature $end
   $var wire 16 "o _r_mac_T_2 $end
   $var wire 8 #a r_feature $end
   $var wire 8 #c io_i_feature $end
   $var wire 1 #j io_i_loading $end
   $var wire 8 $/ r_weight $end
   $var wire 17 $8 _r_mac_T_1 $end
   $var wire 16 $= _r_mac_T $end
   $var wire 8 $Q io_o_weight $end
   $var wire 16 $T r_mac $end
  $upscope $end
  $scope module sys_arr_4_2 $end
   $var wire 1 C clock $end
   $var wire 17 s _r_mac_T_1 $end
   $var wire 16 } io_i_sum $end
   $var wire 8 "( io_i_weight $end
   $var wire 8 "> r_feature $end
   $var wire 8 #J r_weight $end
   $var wire 16 #h _r_mac_T $end
   $var wire 8 #t io_o_feature $end
   $var wire 8 #w io_o_weight $end
   $var wire 16 #y r_mac $end
   $var wire 8 $$ io_i_feature $end
   $var wire 1 $' io_i_loading $end
   $var wire 16 $N _r_mac_T_2 $end
   $var wire 16 $y io_o_sum $end
  $upscope $end
  $scope module sys_arr_3_4 $end
   $var wire 8 "6 io_i_weight $end
   $var wire 16 "8 io_i_sum $end
   $var wire 16 "I _r_mac_T_2 $end
   $var wire 8 "[ io_o_feature $end
   $var wire 16 #( r_mac $end
   $var wire 17 #= _r_mac_T_1 $end
   $var wire 8 #b r_weight $end
   $var wire 8 #n io_i_feature $end
   $var wire 1 #p io_i_loading $end
   $var wire 16 $, _r_mac_T $end
   $var wire 8 $< io_o_weight $end
   $var wire 8 $I r_feature $end
   $var wire 1 $R clock $end
   $var wire 16 %' io_o_sum $end
  $upscope $end
  $scope module sys_arr_1_3 $end
   $var wire 8 K io_i_weight $end
   $var wire 16 f _r_mac_T_2 $end
   $var wire 8 z io_o_feature $end
   $var wire 16 "@ io_i_sum $end
   $var wire 17 "T _r_mac_T_1 $end
   $var wire 8 "q io_i_feature $end
   $var wire 1 "s io_i_loading $end
   $var wire 16 "t r_mac $end
   $var wire 8 #S io_o_weight $end
   $var wire 16 #Z _r_mac_T $end
   $var wire 8 #x r_weight $end
   $var wire 1 $P clock $end
   $var wire 16 $S io_o_sum $end
   $var wire 8 %" r_feature $end
  $upscope $end
  $scope module sys_arr_1_4 $end
   $var wire 8 + io_o_feature $end
   $var wire 8 4 io_i_weight $end
   $var wire 8 > r_feature $end
   $var wire 17 E _r_mac_T_1 $end
   $var wire 16 a io_i_sum $end
   $var wire 1 "1 io_i_loading $end
   $var wire 16 "3 r_mac $end
   $var wire 8 "= io_i_feature $end
   $var wire 16 "n _r_mac_T $end
   $var wire 1 #+ clock $end
   $var wire 8 #? r_weight $end
   $var wire 8 #D io_o_weight $end
   $var wire 16 #e io_o_sum $end
   $var wire 16 $* _r_mac_T_2 $end
  $upscope $end
  $scope module sys_arr_2_1 $end
   $var wire 17 ( _r_mac_T_1 $end
   $var wire 8 . io_i_weight $end
   $var wire 1 J clock $end
   $var wire 16 N io_i_sum $end
   $var wire 8 "| io_o_feature $end
   $var wire 8 #! r_feature $end
   $var wire 8 #5 io_i_feature $end
   $var wire 1 #< io_i_loading $end
   $var wire 16 #> _r_mac_T $end
   $var wire 8 #C io_o_weight $end
   $var wire 8 #^ r_weight $end
   $var wire 16 #l _r_mac_T_2 $end
   $var wire 16 #~ r_mac $end
   $var wire 16 $C io_o_sum $end
  $upscope $end
  $scope module sys_arr_0_0 $end
   $var wire 8 H io_o_feature $end
   $var wire 1 U clock $end
   $var wire 16 q io_i_sum $end
   $var wire 1 "H io_i_loading $end
   $var wire 8 "P io_i_feature $end
   $var wire 8 "S io_o_weight $end
   $var wire 16 "c _r_mac_T $end
   $var wire 8 "w r_feature $end
   $var wire 16 #& _r_mac_T_2 $end
   $var wire 8 #H r_weight $end
   $var wire 16 #k io_o_sum $end
   $var wire 16 $. r_mac $end
   $var wire 8 $K io_i_weight $end
   $var wire 17 $b _r_mac_T_1 $end
  $upscope $end
  $scope module sys_arr_4_3 $end
   $var wire 16 9 io_i_sum $end
   $var wire 8 ^ io_i_weight $end
   $var wire 16 "J r_mac $end
   $var wire 8 "_ r_weight $end
   $var wire 16 "g _r_mac_T_2 $end
   $var wire 16 "r _r_mac_T $end
   $var wire 8 "x io_o_feature $end
   $var wire 1 #2 io_i_loading $end
   $var wire 8 #A io_i_feature $end
   $var wire 8 #W r_feature $end
   $var wire 8 #m io_o_weight $end
   $var wire 1 #} clock $end
   $var wire 16 $2 io_o_sum $end
   $var wire 17 $9 _r_mac_T_1 $end
  $upscope $end
  $scope module sys_arr_2_2 $end
   $var wire 16 A io_i_sum $end
   $var wire 8 F io_o_feature $end
   $var wire 16 t _r_mac_T_2 $end
   $var wire 16 "F _r_mac_T $end
   $var wire 8 "L io_i_feature $end
   $var wire 1 "N io_i_loading $end
   $var wire 16 "U r_mac $end
   $var wire 8 "u io_o_weight $end
   $var wire 8 "v r_weight $end
   $var wire 8 #T r_feature $end
   $var wire 17 #U _r_mac_T_1 $end
   $var wire 16 #Y io_o_sum $end
   $var wire 1 #z clock $end
   $var wire 8 %, io_i_weight $end
  $upscope $end
  $scope module sys_arr_0_1 $end
   $var wire 16 / _r_mac_T_2 $end
   $var wire 8 m io_i_feature $end
   $var wire 1 p io_i_loading $end
   $var wire 16 | _r_mac_T $end
   $var wire 8 "/ io_o_weight $end
   $var wire 8 "O r_weight $end
   $var wire 17 "d _r_mac_T_1 $end
   $var wire 16 "y io_o_sum $end
   $var wire 16 #I r_mac $end
   $var wire 1 $# clock $end
   $var wire 8 $? io_i_weight $end
   $var wire 8 $D r_feature $end
   $var wire 8 $t io_o_feature $end
   $var wire 16 %$ io_i_sum $end
  $upscope $end
  $scope module sys_arr_4_4 $end
   $var wire 8 = io_o_feature $end
   $var wire 16 ] r_mac $end
   $var wire 16 i _r_mac_T_2 $end
   $var wire 16 "5 _r_mac_T $end
   $var wire 8 "G io_i_feature $end
   $var wire 1 "K io_i_loading $end
   $var wire 17 "Q _r_mac_T_1 $end
   $var wire 8 "f r_weight $end
   $var wire 16 #1 io_o_sum $end
   $var wire 1 #: clock $end
   $var wire 8 #\ io_o_weight $end
   $var wire 8 $4 r_feature $end
   $var wire 16 $^ io_i_sum $end
   $var wire 8 $v io_i_weight $end
  $upscope $end
  $scope module sys_arr_2_3 $end
   $var wire 8 X io_i_feature $end
   $var wire 17 [ _r_mac_T_1 $end
   $var wire 1 \ io_i_loading $end
   $var wire 16 d r_mac $end
   $var wire 16 h _r_mac_T $end
   $var wire 8 "9 r_weight $end
   $var wire 8 "W io_o_weight $end
   $var wire 16 "Y io_o_sum $end
   $var wire 1 #8 clock $end
   $var wire 8 $" io_i_weight $end
   $var wire 8 $- r_feature $end
   $var wire 16 $G _r_mac_T_2 $end
   $var wire 8 $n io_o_feature $end
   $var wire 16 $o io_i_sum $end
  $upscope $end
  $scope module sys_arr_3_0 $end
   $var wire 16 8 io_i_sum $end
   $var wire 17 @ _r_mac_T_1 $end
   $var wire 8 L r_feature $end
   $var wire 16 ", _r_mac_T $end
   $var wire 8 "A io_o_feature $end
   $var wire 8 "\ r_weight $end
   $var wire 8 "^ io_o_weight $end
   $var wire 8 "` io_i_feature $end
   $var wire 1 "a io_i_loading $end
   $var wire 16 #F io_o_sum $end
   $var wire 16 #O r_mac $end
   $var wire 8 $p io_i_weight $end
   $var wire 16 $x _r_mac_T_2 $end
   $var wire 1 %. clock $end
  $upscope $end
  $scope module sys_arr_2_4 $end
   $var wire 8 - r_feature $end
   $var wire 8 I r_weight $end
   $var wire 1 ` clock $end
   $var wire 8 k io_o_weight $end
   $var wire 16 u io_o_sum $end
   $var wire 16 #7 _r_mac_T_2 $end
   $var wire 8 #r io_i_weight $end
   $var wire 16 #v io_i_sum $end
   $var wire 8 $1 io_o_feature $end
   $var wire 17 $3 _r_mac_T_1 $end
   $var wire 16 $H r_mac $end
   $var wire 16 %# _r_mac_T $end
   $var wire 8 %( io_i_feature $end
   $var wire 1 %- io_i_loading $end
  $upscope $end
  $scope module sys_arr_3_1 $end
   $var wire 16 D _r_mac_T $end
   $var wire 8 e io_o_feature $end
   $var wire 8 "! r_feature $end
   $var wire 8 "# r_weight $end
   $var wire 8 "' io_i_feature $end
   $var wire 1 ") io_i_loading $end
   $var wire 16 "D io_o_sum $end
   $var wire 8 "R io_o_weight $end
   $var wire 16 "e r_mac $end
   $var wire 16 #) _r_mac_T_2 $end
   $var wire 8 #o io_i_weight $end
   $var wire 1 $@ clock $end
   $var wire 16 $U io_i_sum $end
   $var wire 17 $X _r_mac_T_1 $end
  $upscope $end
  $scope module sys_arr_1_0 $end
   $var wire 8 2 io_i_feature $end
   $var wire 1 5 io_i_loading $end
   $var wire 8 ? r_weight $end
   $var wire 8 j io_o_weight $end
   $var wire 16 o _r_mac_T $end
   $var wire 16 y io_o_sum $end
   $var wire 16 "+ _r_mac_T_2 $end
   $var wire 8 "b r_feature $end
   $var wire 16 "l r_mac $end
   $var wire 8 #, io_i_weight $end
   $var wire 17 #g _r_mac_T_1 $end
   $var wire 16 $+ io_i_sum $end
   $var wire 1 $7 clock $end
   $var wire 8 $A io_o_feature $end
  $upscope $end
  $scope module sys_arr_0_2 $end
   $var wire 8 W r_weight $end
   $var wire 16 n r_mac $end
   $var wire 16 ~ _r_mac_T $end
   $var wire 8 "$ io_o_weight $end
   $var wire 16 "{ io_o_sum $end
   $var wire 8 #0 io_i_weight $end
   $var wire 1 #G clock $end
   $var wire 16 #M _r_mac_T_2 $end
   $var wire 8 $% io_o_feature $end
   $var wire 16 $B io_i_sum $end
   $var wire 8 $g r_feature $end
   $var wire 1 $z io_i_loading $end
   $var wire 17 $} _r_mac_T_1 $end
   $var wire 8 %1 io_i_feature $end
  $upscope $end
  $scope module sys_arr_3_2 $end
   $var wire 8 " io_i_feature $end
   $var wire 8 # r_weight $end
   $var wire 16 $ r_mac $end
   $var wire 16 * _r_mac_T_2 $end
   $var wire 1 1 io_i_loading $end
   $var wire 8 T io_o_weight $end
   $var wire 16 l io_o_sum $end
   $var wire 17 "] _r_mac_T_1 $end
   $var wire 1 "m clock $end
   $var wire 8 #6 r_feature $end
   $var wire 8 #K io_i_weight $end
   $var wire 16 #s io_i_sum $end
   $var wire 16 $r _r_mac_T $end
   $var wire 8 $| io_o_feature $end
  $upscope $end
$upscope $end
$enddefinitions $end
$dumpvars
b00000000 b
b00000000 "(
b0000000000000000 t
0"1
b00000000000000000 #g
b00000000000000000 $3
b00000000000000000 #=
b0000000000000000 a
b00000000000000000 "T
b0000000000000000 $o
b00000000000000000 ""
b00000000 $/
b00000000 "X
b00000000 "&
b0000000000000000 ";
b00000000 %)
b00000000 #J
b00000000 #5
b00000000 "L
b0000000000000000 f
b0000000000000000 Q
b0000000000000000 #~
b0000000000000000 $B
b0000000000000000 %#
b00000000 P
b00000000 ;
0$0
0#2
b0000000000000000 0
b0000000000000000 "g
b0000000000000000 "J
b0000000000000000 "5
b0000000000000000 "-
b00000000 L
b00000000 $l
b00000000 #n
b00000000 "x
b00000000 $O
b00000000 "[
b0000000000000000 u
0p
0$&
b00000000 $h
b00000000 +
b00000000 $K
b00000000 $6
b00000000 %,
b00000000 "W
b00000000 "B
b00000000 ##
0"}
b0000000000000000 q
0"K
0O
0#$
b00000000000000000 $b
b0000000000000000 #l
b0000000000000000 $M
b0000000000000000 "n
b0000000000000000 "Y
b0000000000000000 #O
b00000000000000000 @
b00000000 >
b00000000 $I
b00000000 %*
0`
b00000000000000000 $s
0"?
0"*
b0000000000000000 $^
b0000000000000000 #h
b0000000000000000 "j
b0000000000000000 $,
b0000000000000000 "U
b0000000000000000 "8
b00000000 :
b00000000 %&
b00000000 "f
b00000000 $(
0$c
b00000000 "4
0#P
b0000000000000000 N
b0000000000000000 #{
b0000000000000000 #I
b0000000000000000 $*
b00000000 "w
b00000000 "b
b00000000 #C
b00000000 $$
b00000000000000000 %/
b00000000 "E
b0000000000000000 |
b00000000000000000 #;
0"N
b0000000000000000 $m
b0000000000000000 "y
b0000000000000000 #Z
b0000000000000000 #(
b00000000 $J
b00000000 ^
b00000000 I
b00000000 ,
b00000000 "$
0#@
b00000000 "u
b0000000000000000 $~
b00000000 #V
0$!
b0000000000000000 #k
0$@
b0000000000000000 !
b0000000000000000 #N
b0000000000000000 "C
b00000000 Z
b00000000 $e
b00000000 =
0J
b0000000000000000 #|
b0000000000000000 $]
0#p
0"z
b0000000000000000 n
b0000000000000000 $+
b0000000000000000 "7
b00000000 #x
b00000000 #[
b00000000 m
b00000000 $<
b0000000000000000 "e
b0000000000000000 #F
b00000000000000000 "]
b0000000000000000 M
b0000000000000000 $x
b0000000000000000 "3
0#:
b0000000000000000 #)
b00000000 $j
b00000000 #t
b00000000 "v
b00000000 #W
b00000000 #B
b00000000 #%
b00000000 "/
b00000000 "'
0Y
0#.
b0000000000000000 A
0<
b0000000000000000 #Y
b0000000000000000 "F
b00000000 #6
b00000000 H
b00000000 #!
b00000000 "#
b0000000000000000 o
b00000000000000000 $}
0#*
0U
b0000000000000000 "t
b0000000000000000 "%
b00000000 '
b00000000 #f
b00000000 %(
b00000000 "h
b00000000 "S
b00000000 #4
0$P
0$;
b00000000 "6
b00000000 "!
b0000000000000000 ${
b00000000 j
b00000000 #w
b00000000 #b
b00000000 W
b00000000 "O
0$L
0%-
b0000000000000000 ~
b0000000000000000 i
b00000000 #0
0#9
0"m
0\
b0000000000000000 $w
b0000000000000000 #y
b0000000000000000 $Z
b0000000000000000 $E
b0000000000000000 /
b0000000000000000 "{
b0000000000000000 $=
b0000000000000000 "I
b00000000000000000 E
b00000000 K
b00000000 6
b00000000 .
b0000000000000000 ]
0#-
0C
b0000000000000000 #`
b00000000000000000 $9
b0000000000000000 #X
b0000000000000000 #&
b00000000000000000 s
b00000000 2
b00000000 $g
b00000000 #q
b00000000 #T
b00000000 $5
b00000000 "^
0#z
0$[
b00000000 "A
b00000000 #?
0#]
0V
0#+
b00000000 #m
b00000000 &
b00000000 $F
b00000000 $1
b00000000 "R
b00000000 "=
0$:
b0000000000000000 l
0g
0#<
0#'
05
b0000000000000000 %
0")
b0000000000000000 $H
b0000000000000000 #R
b00000000 #D
b00000000 $%
b00000000 k
b00000000 $v
b00000000 #c
b00000000 $D
b00000000 %%
0":
b00000000 "P
0%.
0)
b0000000000000000 #1
b00000000 #_
b00000000 %!
0#}
b0000000000000000 *
b00000000000000000 $8
0v
b0000000000000000 "D
b00000000000000000 "<
b0000000000000000 #v
b0000000000000000 $W
b0000000000000000 "c
b00000000 $f
b00000000 z
b00000000 e
b00000000 #S
b00000000 $4
0#d
b0000000000000000 "r
0#G
b0000000000000000 "@
b0000000000000000 $S
b00000000000000000 [
0{
b0000000000000000 $y
b0000000000000000 9
b0000000000000000 $G
b0000000000000000 #Q
b0000000000000000 $2
b00000000 r
0%+
b00000000 $`
0w
b00000000 #
0"V
b0000000000000000 $u
0$i
b00000000000000000 $X
b0000000000000000 $C
0$7
b00000000000000000 "d
b0000000000000000 %$
b0000000000000000 #E
b0000000000000000 "2
b00000000 4
b00000000 #^
b00000000 $?
0$z
b00000000 "`
b00000000 #,
b00000000 #A
b00000000 $"
0"i
b0000000000000000 ".
b00000000 #o
b00000000 %1
b00000000 "q
b00000000 "\
b00000000 "G
0$Y
0$'
b0000000000000000 D
0"H
b00000000000000000 #i
b0000000000000000 #7
b0000000000000000 #"
b0000000000000000 ",
b00000000000000000 (
b00000000 X
0"a
0$#
b0000000000000000 8
b0000000000000000 $N
b0000000000000000 #e
b0000000000000000 %'
b0000000000000000 "o
b0000000000000000 "Z
b0000000000000000 #3
b00000000 $|
b00000000 T
b00000000 ?
b00000000 $t
b00000000 $_
b00000000 7
b00000000 "
b00000000 #a
b00000000 "k
b00000000 #L
b00000000 $-
b00000000 #/
b00000000 "9
0#j
b0000000000000000 }
b0000000000000000 h
b0000000000000000 S
0#8
b0000000000000000 $a
01
b00000000 $p
b00000000 3
b00000000 #r
b00000000 "|
b00000000 #H
b00000000 $)
0$d
b00000000 "_
b00000000 $>
b00000000000000000 #U
0"p
b0000000000000000 y
b0000000000000000 d
b0000000000000000 $r
b0000000000000000 G
0B
b0000000000000000 $U
b0000000000000000 "~
b00000000 x
b00000000 c
b00000000 $n
b00000000 ">
b00000000 F
b00000000 $Q
b0000000000000000 #>
b0000000000000000 "+
b00000000 _
b00000000 -
0$k
0#u
0$V
b00000000000000000 "Q
b0000000000000000 $
b0000000000000000 %0
b00000000 $A
b00000000 #K
b00000000 %"
0$R
0"s
b0000000000000000 R
b0000000000000000 "M
b00000000000000000 "0
b0000000000000000 "l
b0000000000000000 #M
b0000000000000000 $.
b00000000 #\
b00000000 $\
b0000000000000000 $q
b0000000000000000 #s
b0000000000000000 $T
$end
#0
1$i
#1
1":
1"m
1`
1#d
1C
1#8
1g
1#z
1J
1$7
1#G
1w
1%.
1#$
1#+
1#:
1#P
1$@
1$#
1U
1"i
1#}
1$P
1%+
1"*
1$R
#6
1#j
b00000111 $K
0#8
0%.
1$0
0#:
0#}
b00011000 #0
0":
0`
0#d
0C
0#G
1#2
0w
b00000111 Z
b00001000 $?
b00011000 "h
1"K
1\
0$P
1$;
0"*
0$R
b00001000 $5
1"s
0$i
0g
1%-
0$7
0J
1$L
15
1#9
0#$
1$k
0#P
1$z
11
0"i
1"?
b00001001 $_
0%+
1"N
1$Y
0"m
1$'
0#z
1#]
b00011101 '
0#+
b00001001 x
1p
0$@
0$#
1"a
b00011101 #%
0U
1#<
1"1
1")
1#p
1"H
#11
b00001001 4
1g
1#8
b00011000 "$
1$7
1J
b00001000 "X
1%.
1#$
b00011101 K
1#:
1#P
b00011000 b
b00000111 "S
b00001001 %)
1"i
1#}
1%+
b00001000 "O
1":
1"m
b00011101 %%
1`
1#d
1C
1#G
1#z
1w
b00000111 #H
1#+
b00000111 #,
1$@
b00011101 %!
1$#
b00001000 "/
b00001001 $l
1U
1$P
b00011000 W
1"*
1$R
#16
b00001110 $K
0g
0#8
0$7
0J
0%.
0#$
0#:
0#P
0"i
0#}
b00100100 $_
0%+
b00010110 #0
0":
0"m
0`
0#d
0C
0#G
0#z
0w
b00011100 '
b00001110 Z
0#+
b00011010 $?
b00010110 "h
b00100100 x
0$@
0$#
b00011100 #%
0U
0$P
0"*
0$R
b00011010 $5
#21
b00001001 #?
b00001001 #r
b00011000 %,
b00100100 4
1g
1#8
b00010110 "$
1$7
1J
b00001000 $j
b00011010 "X
1%.
1#$
b00011100 K
1#:
1#P
b00000111 j
b00010110 b
b00001110 "S
b00100100 %)
b00001000 $f
1"i
1#}
1%+
b00011101 #x
1":
1"m
b00011000 $/
b00011100 %%
1`
b00011010 "O
1#d
1C
b00001000 .
1#G
1#z
1w
b00001110 #H
1#+
b00011101 $"
b00001110 #,
1$@
b00011100 %!
1$#
b00000111 ?
b00011010 "/
b00100100 $l
1U
b00001001 #D
1$P
b00010110 W
b00011000 $Q
b00000111 :
1"*
b00011101 #S
1$R
#26
b00011001 $K
0g
0#8
0$7
0J
0%.
0#$
0#:
0#P
0"i
0#}
b00011110 $_
0%+
b00000101 #0
0":
0"m
0`
0#d
0C
0#G
0#z
0w
b00011111 '
b00011001 Z
0#+
b00010100 $?
b00000101 "h
b00011110 x
0$@
0$#
b00011111 #%
0U
0$P
0"*
0$R
b00010100 $5
#31
b00100100 #r
b00010110 %,
b00011110 4
1#8
b00011101 "W
b00011010 $j
1%.
b00011000 "v
b00011111 K
1#:
b00001110 j
b00000101 b
b00011001 "S
b00011010 $f
b00001001 "6
1#}
b00011000 #K
b00001001 I
b00010100 "O
1":
1`
1#d
1C
b00011010 .
1#G
1w
b00001000 #^
b00011100 $"
b00011001 #,
b00001110 ?
b00001000 #C
b00011101 "E
b00001001 k
b00001000 #o
1$P
1"*
1$R
b00000111 #q
b00100100 #?
1g
b00000101 "$
b00011000 "u
1J
1$7
b00010100 "X
1#$
1#P
b00011110 %)
1"i
1%+
b00011101 "9
b00011100 #x
b00011111 %%
1"m
b00010110 $/
b00000111 $p
1#z
b00000111 $F
b00011001 #H
1#+
1$@
b00011111 %!
1$#
b00010100 "/
b00011110 $l
1U
b00100100 #D
b00000101 W
b00010110 $Q
b00001110 :
b00011100 #S
#36
b00010011 $K
0g
0#8
0$7
0J
0%.
0#$
0#:
0#P
0"i
0#}
b00000001 $_
0%+
b00001010 #0
0":
0"m
0`
0#d
0C
0#G
0#z
0w
b00000011 '
b00010011 Z
0#+
b00001111 $?
b00001010 "h
b00000001 x
0$@
0$#
b00000011 #%
0U
0$P
0"*
0$R
b00001111 $5
#41
b00011110 #r
b00000101 %,
b00000001 4
1#8
b00011100 "W
b00010100 $j
1%.
b00010110 "v
b00000011 K
1#:
b00011001 j
b00001010 b
b00000111 #4
b00010011 "S
b00010100 $f
b00100100 "6
1#}
b00010110 #K
b00001000 "#
b00011101 $`
b00011101 ^
b00100100 I
b00001001 #b
b00001111 "O
1":
1`
1#d
1C
b00010100 .
1#G
b00001000 "4
1w
b00011010 #^
b00011111 $"
b00010011 #,
b00011000 T
b00011001 ?
b00011010 #C
b00011100 "E
b00011000 "(
b00100100 k
b00011010 #o
1$P
b00000111 "\
1"*
1$R
b00001110 #q
b00000111 "^
b00011110 #?
1g
b00001010 "$
b00010110 "u
1J
1$7
b00001111 "X
1#$
b00011101 7
1#P
b00001000 "R
b00000001 %)
1"i
1%+
b00011100 "9
b00001001 $v
b00011111 #x
b00000011 %%
1"m
b00000101 $/
b00001110 $p
1#z
b00001110 $F
b00010011 #H
1#+
1$@
b00000011 %!
1$#
b00001111 "/
b00000001 $l
1U
b00011110 #D
b00011000 #
b00001010 W
b00000101 $Q
b00001001 $<
b00011001 :
b00011111 #S
#46
b00001000 $K
0g
0#8
0$7
0J
0%.
0#$
0#:
0#P
0"i
0#}
b00000110 $_
0%+
b00001000 #0
0":
0"m
0`
0#d
0C
0#G
0#z
0w
b00000101 '
b00001000 Z
0#+
b00000111 $?
b00001000 "h
b00000110 x
0$@
0$#
b00000101 #%
0U
0$P
0"*
0$R
b00000111 $5
#51
b00000001 #r
b00001010 %,
b00011101 "_
b00000110 4
1#8
b00011111 "W
b00001111 $j
1%.
b00000101 "v
b00000101 K
1#:
b00010011 j
b00001000 b
b00001110 #4
b00001000 "S
b00001111 $f
b00011110 "6
1#}
b00001000 %*
b00000101 #K
b00011010 "#
b00011100 $`
b00011100 ^
b00011110 I
b00100100 #b
b00000111 ,
b00000111 "O
1":
1`
1#d
b00000111 %&
1C
b00001111 .
b00001001 "f
1#G
b00011010 "4
1w
b00010100 #^
b00000011 $"
b00001000 #,
b00010110 T
b00010011 ?
b00010100 #C
b00011111 "E
b00011000 #w
b00010110 "(
b00011110 k
b00010100 #o
1$P
b00001110 "\
1"*
1$R
b00001001 #\
b00011001 #q
b00001110 "^
b00000001 #?
1g
b00001000 "$
b00000101 "u
1J
1$7
b00000111 "X
1#$
b00011101 #m
b00011100 7
1#P
b00011010 "R
b00000110 %)
b00011000 #J
1"i
1%+
b00011111 "9
b00100100 $v
b00000011 #x
b00000101 %%
1"m
b00001010 $/
b00011001 $p
1#z
b00011001 $F
b00001000 $>
b00001000 #H
1#+
1$@
b00000101 %!
1$#
b00000111 "/
b00000110 $l
1U
b00000001 #D
b00010110 #
b00001000 W
b00001010 $Q
b00100100 $<
b00010011 :
b00000011 #S
