output_stationary_SA/test_run_dir/anything_ok_module_name_should_output_stationary_system_array/osSA.vcd
$date
2021-12-03T13:42+0000
$end
$version
0.2
$end
$comment

$end
$timescale 1ns  $end
$scope module osSA $end
 $var wire 8 ' io_i_weight_3 $end
 $var wire 1 ) sys_arr_2_0 $end
 $var wire 1 8 sys_arr_1_4 $end
 $var wire 1 = sys_arr_2_3 $end
 $var wire 16 F io_o_result_0_0 $end
 $var wire 1 J sys_arr_3_2 $end
 $var wire 8 K io_i_feature_3 $end
 $var wire 1 Q sys_arr_4_1 $end
 $var wire 1 T sys_arr_4_4 $end
 $var wire 8 U io_i_weight_0 $end
 $var wire 16 X io_o_result_1_2 $end
 $var wire 16 ] io_o_result_2_1 $end
 $var wire 16 k io_o_result_3_0 $end
 $var wire 16 l io_o_result_0_3 $end
 $var wire 1 q sys_arr_1_1 $end
 $var wire 1 v sys_arr_0_2 $end
 $var wire 16 w io_o_result_2_4 $end
 $var wire 16 } io_o_result_3_3 $end
 $var wire 16 "! io_o_result_4_2 $end
 $var wire 8 "# io_i_feature_0 $end
 $var wire 1 "H sys_arr_1_0 $end
 $var wire 16 "L io_o_result_4_1 $end
 $var wire 16 "R io_o_result_2_3 $end
 $var wire 8 "Z io_i_weight_2 $end
 $var wire 16 "_ io_o_result_1_4 $end
 $var wire 1 "b sys_arr_0_1 $end
 $var wire 16 "c io_o_result_3_2 $end
 $var wire 1 "k sys_arr_0_4 $end
 $var wire 1 "o sys_arr_2_2 $end
 $var wire 8 "q io_i_feature_2 $end
 $var wire 16 "s io_o_result_4_4 $end
 $var wire 1 "v sys_arr_3_1 $end
 $var wire 1 "z sys_arr_4_0 $end
 $var wire 1 "| sys_arr_1_3 $end
 $var wire 1 "} sys_arr_4_3 $end
 $var wire 16 ## io_o_result_1_1 $end
 $var wire 16 #& io_o_result_0_2 $end
 $var wire 16 #( io_o_result_2_0 $end
 $var wire 1 #0 sys_arr_3_4 $end
 $var wire 1 #? clock $end
 $var wire 1 #^ sys_arr_4_2 $end
 $var wire 1 #g sys_arr_2_4 $end
 $var wire 1 #l sys_arr_3_3 $end
 $var wire 8 #m io_i_feature_4 $end
 $var wire 16 #x io_o_result_3_1 $end
 $var wire 8 #y io_i_weight_1 $end
 $var wire 16 #{ io_o_result_4_0 $end
 $var wire 16 #} io_o_result_1_3 $end
 $var wire 1 $" sys_arr_0_0 $end
 $var wire 16 $) io_o_result_2_2 $end
 $var wire 16 $+ io_o_result_0_4 $end
 $var wire 1 $< sys_arr_0_3 $end
 $var wire 1 $? sys_arr_1_2 $end
 $var wire 16 $B io_o_result_3_4 $end
 $var wire 8 $C io_i_weight_4 $end
 $var wire 16 $E io_o_result_4_3 $end
 $var wire 1 $H sys_arr_3_0 $end
 $var wire 1 $I sys_arr_2_1 $end
 $var wire 8 $J io_i_feature_1 $end
 $var wire 16 $N io_o_result_1_0 $end
 $var wire 1 $O reset $end
 $var wire 16 $U io_o_result_0_1 $end
  $scope module sys_arr_0_3 $end
   $var wire 16 ! _r_mac_T $end
   $var wire 8 & r_feature $end
   $var wire 1 b clock $end
   $var wire 16 "3 io_o_sum $end
   $var wire 16 "9 _r_mac_T_2 $end
   $var wire 8 "t io_i_weight $end
   $var wire 17 #, _r_mac_T_1 $end
   $var wire 8 #2 io_o_feature $end
   $var wire 8 #z io_i_feature $end
   $var wire 16 $- r_mac $end
   $var wire 8 $b io_o_weight $end
   $var wire 8 $e r_weight $end
  $upscope $end
  $scope module sys_arr_3_3 $end
   $var wire 8 4 io_o_weight $end
   $var wire 1 "& clock $end
   $var wire 8 "; io_i_weight $end
   $var wire 8 #; io_o_feature $end
   $var wire 16 #= _r_mac_T_2 $end
   $var wire 8 #R r_feature $end
   $var wire 8 $6 io_i_feature $end
   $var wire 16 $A r_mac $end
   $var wire 8 $D r_weight $end
   $var wire 16 $R _r_mac_T $end
   $var wire 16 $^ io_o_sum $end
   $var wire 17 $n _r_mac_T_1 $end
  $upscope $end
  $scope module sys_arr_0_4 $end
   $var wire 16 L io_o_sum $end
   $var wire 8 Z r_feature $end
   $var wire 8 s io_i_weight $end
   $var wire 17 "* _r_mac_T_1 $end
   $var wire 8 "8 io_o_feature $end
   $var wire 16 #E r_mac $end
   $var wire 8 #H io_i_feature $end
   $var wire 16 $F _r_mac_T $end
   $var wire 8 $Q io_o_weight $end
   $var wire 16 $V _r_mac_T_2 $end
   $var wire 8 $i r_weight $end
   $var wire 1 $k clock $end
  $upscope $end
  $scope module sys_arr_4_0 $end
   $var wire 8 , io_o_weight $end
   $var wire 8 2 r_feature $end
   $var wire 8 5 io_o_feature $end
   $var wire 8 7 io_i_feature $end
   $var wire 16 B io_o_sum $end
   $var wire 16 "0 r_mac $end
   $var wire 8 #% io_i_weight $end
   $var wire 1 #Q clock $end
   $var wire 16 #d _r_mac_T_2 $end
   $var wire 16 $> _r_mac_T $end
   $var wire 17 $X _r_mac_T_1 $end
   $var wire 8 $f r_weight $end
  $upscope $end
  $scope module sys_arr_1_1 $end
   $var wire 16 0 r_mac $end
   $var wire 17 { _r_mac_T_1 $end
   $var wire 16 "" io_o_sum $end
   $var wire 8 "J io_i_weight $end
   $var wire 1 "[ clock $end
   $var wire 8 "~ r_feature $end
   $var wire 8 #C io_o_feature $end
   $var wire 8 $2 io_i_feature $end
   $var wire 16 $4 _r_mac_T_2 $end
   $var wire 8 $K io_o_weight $end
   $var wire 8 $P r_weight $end
   $var wire 16 $o _r_mac_T $end
  $upscope $end
  $scope module sys_arr_4_1 $end
   $var wire 16 N r_mac $end
   $var wire 8 m r_feature $end
   $var wire 16 "+ _r_mac_T_2 $end
   $var wire 8 "- io_i_weight $end
   $var wire 1 "2 clock $end
   $var wire 16 #L _r_mac_T $end
   $var wire 17 #U _r_mac_T_1 $end
   $var wire 8 $% r_weight $end
   $var wire 8 $@ io_o_feature $end
   $var wire 8 $M io_i_feature $end
   $var wire 16 $[ io_o_sum $end
   $var wire 8 $j io_o_weight $end
  $upscope $end
  $scope module sys_arr_2_0 $end
   $var wire 8 6 io_i_weight $end
   $var wire 16 I _r_mac_T_2 $end
   $var wire 16 M r_mac $end
   $var wire 8 ^ r_feature $end
   $var wire 17 "4 _r_mac_T_1 $end
   $var wire 1 "r clock $end
   $var wire 8 #K io_o_feature $end
   $var wire 8 #[ r_weight $end
   $var wire 16 #c _r_mac_T $end
   $var wire 8 #n io_i_feature $end
   $var wire 8 $. io_o_weight $end
   $var wire 16 $a io_o_sum $end
  $upscope $end
  $scope module sys_arr_1_2 $end
   $var wire 16 % io_o_sum $end
   $var wire 8 \ io_i_weight $end
   $var wire 1 r clock $end
   $var wire 8 "\ io_o_feature $end
   $var wire 16 "a _r_mac_T_2 $end
   $var wire 8 #M r_feature $end
   $var wire 8 #O io_i_feature $end
   $var wire 8 #s r_weight $end
   $var wire 17 #~ _r_mac_T_1 $end
   $var wire 16 $$ _r_mac_T $end
   $var wire 8 $8 io_o_weight $end
   $var wire 16 $; r_mac $end
  $upscope $end
  $scope module sys_arr_4_2 $end
   $var wire 1 > clock $end
   $var wire 17 n _r_mac_T_1 $end
   $var wire 8 "% io_i_weight $end
   $var wire 8 "6 r_feature $end
   $var wire 8 #9 r_weight $end
   $var wire 16 #T _r_mac_T $end
   $var wire 8 #] io_o_feature $end
   $var wire 8 #_ io_o_weight $end
   $var wire 16 #a r_mac $end
   $var wire 8 #j io_i_feature $end
   $var wire 16 $5 _r_mac_T_2 $end
   $var wire 16 $] io_o_sum $end
  $upscope $end
  $scope module sys_arr_3_4 $end
   $var wire 8 "/ io_i_weight $end
   $var wire 16 "> _r_mac_T_2 $end
   $var wire 8 "M io_o_feature $end
   $var wire 16 "w r_mac $end
   $var wire 17 #- _r_mac_T_1 $end
   $var wire 8 #N r_weight $end
   $var wire 8 #Y io_i_feature $end
   $var wire 16 #q _r_mac_T $end
   $var wire 8 $# io_o_weight $end
   $var wire 8 $1 r_feature $end
   $var wire 1 $9 clock $end
   $var wire 16 $g io_o_sum $end
  $upscope $end
  $scope module sys_arr_1_3 $end
   $var wire 8 G io_i_weight $end
   $var wire 16 a _r_mac_T_2 $end
   $var wire 8 u io_o_feature $end
   $var wire 17 "F _r_mac_T_1 $end
   $var wire 8 "d io_i_feature $end
   $var wire 16 "f r_mac $end
   $var wire 8 #@ io_o_weight $end
   $var wire 16 #G _r_mac_T $end
   $var wire 8 #` r_weight $end
   $var wire 1 $7 clock $end
   $var wire 16 $: io_o_sum $end
   $var wire 8 $c r_feature $end
  $upscope $end
  $scope module sys_arr_1_4 $end
   $var wire 8 + io_o_feature $end
   $var wire 8 3 io_i_weight $end
   $var wire 8 : r_feature $end
   $var wire 17 @ _r_mac_T_1 $end
   $var wire 16 ", r_mac $end
   $var wire 8 "5 io_i_feature $end
   $var wire 16 "` _r_mac_T $end
   $var wire 1 "y clock $end
   $var wire 8 #/ r_weight $end
   $var wire 8 #4 io_o_weight $end
   $var wire 16 #P io_o_sum $end
   $var wire 16 #o _r_mac_T_2 $end
  $upscope $end
  $scope module sys_arr_2_1 $end
   $var wire 17 ( _r_mac_T_1 $end
   $var wire 8 . io_i_weight $end
   $var wire 1 E clock $end
   $var wire 8 "n io_o_feature $end
   $var wire 8 "p r_feature $end
   $var wire 8 #$ io_i_feature $end
   $var wire 16 #. _r_mac_T $end
   $var wire 8 #3 io_o_weight $end
   $var wire 8 #J r_weight $end
   $var wire 16 #W _r_mac_T_2 $end
   $var wire 16 #f r_mac $end
   $var wire 16 $* io_o_sum $end
  $upscope $end
  $scope module sys_arr_0_0 $end
   $var wire 8 C io_o_feature $end
   $var wire 1 P clock $end
   $var wire 8 "A io_i_feature $end
   $var wire 8 "E io_o_weight $end
   $var wire 16 "U _r_mac_T $end
   $var wire 8 "i r_feature $end
   $var wire 16 "u _r_mac_T_2 $end
   $var wire 8 #7 r_weight $end
   $var wire 16 #V io_o_sum $end
   $var wire 16 #r r_mac $end
   $var wire 8 $3 io_i_weight $end
   $var wire 17 $G _r_mac_T_1 $end
  $upscope $end
  $scope module sys_arr_4_3 $end
   $var wire 8 Y io_i_weight $end
   $var wire 16 "? r_mac $end
   $var wire 8 "Q r_weight $end
   $var wire 16 "Y _r_mac_T_2 $end
   $var wire 16 "e _r_mac_T $end
   $var wire 8 "j io_o_feature $end
   $var wire 8 #1 io_i_feature $end
   $var wire 8 #D r_feature $end
   $var wire 8 #X io_o_weight $end
   $var wire 1 #e clock $end
   $var wire 16 #u io_o_sum $end
   $var wire 17 $! _r_mac_T_1 $end
  $upscope $end
  $scope module sys_arr_2_2 $end
   $var wire 8 A io_o_feature $end
   $var wire 16 o _r_mac_T_2 $end
   $var wire 16 "< _r_mac_T $end
   $var wire 8 "@ io_i_feature $end
   $var wire 16 "G r_mac $end
   $var wire 8 "g io_o_weight $end
   $var wire 8 "h r_weight $end
   $var wire 8 #A r_feature $end
   $var wire 17 #B _r_mac_T_1 $end
   $var wire 16 #F io_o_sum $end
   $var wire 1 #b clock $end
   $var wire 8 $l io_i_weight $end
  $upscope $end
  $scope module sys_arr_0_1 $end
   $var wire 16 / _r_mac_T_2 $end
   $var wire 8 h io_i_feature $end
   $var wire 16 x _r_mac_T $end
   $var wire 8 ") io_o_weight $end
   $var wire 8 "B r_weight $end
   $var wire 17 "V _r_mac_T_1 $end
   $var wire 16 "l io_o_sum $end
   $var wire 16 #8 r_mac $end
   $var wire 1 #i clock $end
   $var wire 8 $& io_i_weight $end
   $var wire 8 $, r_feature $end
   $var wire 8 $Y io_o_feature $end
  $upscope $end
  $scope module sys_arr_4_4 $end
   $var wire 8 9 io_o_feature $end
   $var wire 16 W r_mac $end
   $var wire 16 d _r_mac_T_2 $end
   $var wire 16 ". _r_mac_T $end
   $var wire 8 "= io_i_feature $end
   $var wire 17 "C _r_mac_T_1 $end
   $var wire 8 "X r_weight $end
   $var wire 16 #" io_o_sum $end
   $var wire 1 #+ clock $end
   $var wire 8 #I io_o_weight $end
   $var wire 8 #w r_feature $end
   $var wire 8 $Z io_i_weight $end
  $upscope $end
  $scope module sys_arr_2_3 $end
   $var wire 8 S io_i_feature $end
   $var wire 17 V _r_mac_T_1 $end
   $var wire 16 _ r_mac $end
   $var wire 16 c _r_mac_T $end
   $var wire 8 "1 r_weight $end
   $var wire 8 "I io_o_weight $end
   $var wire 16 "K io_o_sum $end
   $var wire 1 #* clock $end
   $var wire 8 #h io_i_weight $end
   $var wire 8 #p r_feature $end
   $var wire 16 $/ _r_mac_T_2 $end
   $var wire 8 $S io_o_feature $end
  $upscope $end
  $scope module sys_arr_3_0 $end
   $var wire 17 < _r_mac_T_1 $end
   $var wire 8 H r_feature $end
   $var wire 16 "( _r_mac_T $end
   $var wire 8 "7 io_o_feature $end
   $var wire 8 "N r_weight $end
   $var wire 8 "P io_o_weight $end
   $var wire 8 "S io_i_feature $end
   $var wire 16 #5 io_o_sum $end
   $var wire 16 #> r_mac $end
   $var wire 8 $T io_i_weight $end
   $var wire 16 $\ _r_mac_T_2 $end
   $var wire 1 $m clock $end
  $upscope $end
  $scope module sys_arr_2_4 $end
   $var wire 8 - r_feature $end
   $var wire 8 D r_weight $end
   $var wire 1 [ clock $end
   $var wire 8 f io_o_weight $end
   $var wire 16 p io_o_sum $end
   $var wire 16 #) _r_mac_T_2 $end
   $var wire 8 #\ io_i_weight $end
   $var wire 8 #t io_o_feature $end
   $var wire 17 #v _r_mac_T_1 $end
   $var wire 16 $0 r_mac $end
   $var wire 16 $d _r_mac_T $end
   $var wire 8 $h io_i_feature $end
  $upscope $end
  $scope module sys_arr_3_1 $end
   $var wire 16 ? _r_mac_T $end
   $var wire 8 ` io_o_feature $end
   $var wire 8 z r_feature $end
   $var wire 8 | r_weight $end
   $var wire 8 "$ io_i_feature $end
   $var wire 16 ": io_o_sum $end
   $var wire 8 "D io_o_weight $end
   $var wire 16 "W r_mac $end
   $var wire 16 "x _r_mac_T_2 $end
   $var wire 8 #Z io_i_weight $end
   $var wire 1 $' clock $end
   $var wire 17 $= _r_mac_T_1 $end
  $upscope $end
  $scope module sys_arr_1_0 $end
   $var wire 8 1 io_i_feature $end
   $var wire 8 ; r_weight $end
   $var wire 8 e io_o_weight $end
   $var wire 16 j _r_mac_T $end
   $var wire 16 t io_o_sum $end
   $var wire 16 "' _r_mac_T_2 $end
   $var wire 8 "T r_feature $end
   $var wire 16 "] r_mac $end
   $var wire 8 "{ io_i_weight $end
   $var wire 17 #S _r_mac_T_1 $end
   $var wire 1 #| clock $end
   $var wire 8 $( io_o_feature $end
  $upscope $end
  $scope module sys_arr_0_2 $end
   $var wire 8 R r_weight $end
   $var wire 16 i r_mac $end
   $var wire 16 y _r_mac_T $end
   $var wire 8 ~ io_o_weight $end
   $var wire 16 "m io_o_sum $end
   $var wire 8 #! io_i_weight $end
   $var wire 1 #6 clock $end
   $var wire 16 #< _r_mac_T_2 $end
   $var wire 8 #k io_o_feature $end
   $var wire 8 $L r_feature $end
   $var wire 17 $` _r_mac_T_1 $end
   $var wire 8 $p io_i_feature $end
  $upscope $end
  $scope module sys_arr_3_2 $end
   $var wire 8 " io_i_feature $end
   $var wire 8 # r_weight $end
   $var wire 16 $ r_mac $end
   $var wire 16 * _r_mac_T_2 $end
   $var wire 8 O io_o_weight $end
   $var wire 16 g io_o_sum $end
   $var wire 17 "O _r_mac_T_1 $end
   $var wire 1 "^ clock $end
   $var wire 8 #' r_feature $end
   $var wire 8 #: io_i_weight $end
   $var wire 16 $W _r_mac_T $end
   $var wire 8 $_ io_o_feature $end
  $upscope $end
$upscope $end
$enddefinitions $end
$dumpvars
b00000000 "Z
b00000000 #;
b0000000000000000 t
b00000000 #Z
b0000000000000000 B
0=
b0000000000000000 #o
b0000000000000000 a
b0000000000000000 #=
b0000000000000000 $o
b0000000000000000 "?
b00000000 s
b00000000 A
b00000000 #k
b00000000 $L
b00000000 #N
b00000000 "X
b00000000 #9
b00000000 `
b00000000 ";
0"v
b00000000 "i
b00000000 "T
b00000000 #J
b00000000 "7
0"r
b0000000000000000 #a
b0000000000000000 $B
b0000000000000000 #L
b0000000000000000 $-
b0000000000000000 "9
b00000000 ;
0r
b0000000000000000 0
b0000000000000000 $[
b0000000000000000 $>
b0000000000000000 $)
b00000000000000000 $!
b0000000000000000 "_
b00000000 ~
b00000000 $l
b00000000 #n
b00000000 #Y
b00000000 #'
0#b
b00000000 ")
0#0
b0000000000000000 X
0>
0"2
b00000000 $h
b00000000 +
b00000000 #j
b00000000 |
b00000000 "t
b00000000 $6
b00000000 $K
b00000000 #M
b00000000 "B
b00000000 $.
0"}
0#^
b00000000 "%
0$?
0$"
b00000000000000000 "O
b0000000000000000 ?
b0000000000000000 $0
b0000000000000000 "Y
b0000000000000000 "<
b0000000000000000 "'
b00000000000000000 @
b00000000 S
b00000000 #h
b0000000000000000 #}
b0000000000000000 $^
b0000000000000000 "U
b00000000000000000 n
b00000000 O
b00000000 :
b00000000 #y
b00000000 $Z
b00000000 $(
0"o
b0000000000000000 c
b0000000000000000 N
b0000000000000000 #{
b0000000000000000 $\
b0000000000000000 $*
b00000000 #X
b00000000 #C
b00000000 "E
0"k
b0000000000000000 _
b0000000000000000 "(
b0000000000000000 $;
b0000000000000000 "G
b0000000000000000 #(
b00000000 $J
b00000000 ^
b00000000 #7
b00000000 $i
b00000000 ,
b00000000 "$
b0000000000000000 !
b0000000000000000 "m
b0000000000000000 $/
b00000000 Z
b00000000 $e
b00000000 "5
0J
b0000000000000000 $]
0"z
0$<
b0000000000000000 $+
b00000000000000000 #B
b00000000000000000 #-
b00000000 $Y
b00000000 #[
b00000000 m
b0000000000000000 j
b0000000000000000 "e
b0000000000000000 #F
b0000000000000000 M
b0000000000000000 #)
b0000000000000000 "3
b00000000 $j
b00000000 #t
b00000000 $8
b00000000 $#
b00000000 "D
b00000000 "/
b00000000 #%
b0000000000000000 "x
b0000000000000000 $:
b0000000000000000 #<
b00000000 H
b00000000 "@
b00000000 #!
b00000000 "#
b0000000000000000 o
0#*
08
b00000000000000000 $`
b0000000000000000 "W
b0000000000000000 ##
b0000000000000000 #8
b0000000000000000 ":
b00000000 Y
b00000000 '
b00000000 "p
b00000000 $2
0$m
b00000000 "h
b00000000 "S
b00000000 #4
b00000000 #I
0"y
b00000000 "6
b00000000000000000 #,
b0000000000000000 "!
b00000000 #w
b00000000 $C
b00000000 "d
b00000000 $&
b0000000000000000 i
b0000000000000000 L
0"&
b00000000000000000 "*
b0000000000000000 #d
b0000000000000000 $E
b00000000000000000 $=
b0000000000000000 /
b0000000000000000 "f
b0000000000000000 #G
b00000000 h
b00000000 K
b00000000 6
b00000000 .
b0000000000000000 ]
b0000000000000000 #u
b0000000000000000 $A
b0000000000000000 $V
b0000000000000000 "w
b0000000000000000 $$
b00000000000000000 {
b0000000000000000 #&
b0000000000000000 "0
b00000000 \
b00000000 G
b00000000 2
b00000000000000000 #~
b00000000 "A
b0000000000000000 x
0"|
b0000000000000000 p
0#+
b0000000000000000 "u
b0000000000000000 #V
b00000000 #m
b00000000 &
b00000000 $1
b00000000 #3
b00000000 "=
0$O
b0000000000000000 l
b0000000000000000 W
0"[
b0000000000000000 %
b0000000000000000 #5
b0000000000000000 ""
b00000000 #D
b00000000 $%
b00000000 "1
b00000000 9
b00000000 $D
0[
b00000000000000000 $n
b00000000 "P
b0000000000000000 #x
b00000000 #1
0#l
0)
b00000000 R
b00000000 5
b00000000 "~
b00000000 #_
b00000000 $@
b0000000000000000 *
0$I
b0000000000000000 #W
0v
0#6
b0000000000000000 I
b0000000000000000 $W
b0000000000000000 "c
b00000000 $f
b00000000 z
b00000000 e
b00000000000000000 #S
b0000000000000000 w
b0000000000000000 $4
b0000000000000000 #r
b00000000000000000 <
b00000000 $b
b00000000 "n
b00000000 #O
b00000000 "Q
b00000000 #2
b00000000 D
0$9
b0000000000000000 k
0Q
b00000000000000000 $G
b0000000000000000 #f
b0000000000000000 ">
b00000000 "M
b00000000 U
0#i
b0000000000000000 g
0b
b00000000 #
0E
b00000000000000000 $X
0$7
b0000000000000000 #E
b00000000 f
b00000000 4
b00000000 #s
b00000000 $T
b00000000 #A
0#|
0#g
b00000000 #$
0$H
b00000000000000000 "C
b0000000000000000 ".
b00000000 $P
b00000000 "q
b00000000 #R
b00000000 $3
b00000000 "\
0q
0$'
0T
0"H
b0000000000000000 $g
b0000000000000000 #q
b0000000000000000 $R
b0000000000000000 "s
b0000000000000000 #T
b0000000000000000 $5
b00000000000000000 "V
b0000000000000000 #"
b0000000000000000 ",
b00000000 u
b00000000000000000 (
b00000000 C
b00000000 $c
0P
b0000000000000000 $N
b0000000000000000 $F
b0000000000000000 #P
b0000000000000000 "R
b00000000000000000 V
b00000000 $_
b00000000 7
b00000000 "
b00000000000000000 #v
b00000000 "N
b00000000 #/
b0000000000000000 }
b00000000000000000 "F
b0000000000000000 $a
b0000000000000000 #c
b00000000 $p
b00000000 #z
b00000000 3
b00000000 $S
b00000000 #]
b00000000 "g
b00000000 #H
b00000000 #@
b00000000 "J
b00000000000000000 #U
0#Q
b0000000000000000 y
b00000000 "-
b0000000000000000 d
b0000000000000000 $U
b0000000000000000 "a
b0000000000000000 "L
b00000000 1
b00000000 #p
b00000000 $Q
b0000000000000000 "]
b0000000000000000 #>
b0000000000000000 "+
b00000000 -
b00000000 $M
b00000000 #:
0$k
0"b
b00000000000000000 "4
b0000000000000000 $d
b0000000000000000 $
b00000000 #`
b00000000 "j
b00000000 #K
b00000000 $,
b00000000 "8
0"^
0#?
b0000000000000000 #.
b0000000000000000 "l
b00000000 "{
b00000000 #\
b00000000 "I
0#e
b0000000000000000 F
b0000000000000000 "`
b0000000000000000 "K
$end
#0
1$O
#1
1#?
1"^
1"2
1$'
1$7
1#e
1#*
1$k
1#+
1"&
1E
1#|
1[
1>
1b
1#Q
1$9
1r
1$m
1"[
1"y
1#6
1#i
1"r
1#b
1P
#6
0#?
0"^
b00000001 "A
0$7
b0000000000001000 "u
0$k
0"&
0$O
0b
b00000000000001000 $G
0#Q
b00001000 $3
0#6
0#i
b0000000000001000 "U
b00000001 "#
0#b
0"2
0$'
0#e
0#*
0#+
0E
0#|
0[
0>
0$9
0r
b00001000 U
0$m
0"[
0"y
0"r
0P
#11
1#?
1"^
b0000000000001000 #r
1$7
b0000000000001000 #V
b0000000000010000 "u
b00000001 h
1$k
1"&
1b
b00000000000010000 $G
1#Q
b0000000000001000 F
b00000001 "i
1#6
1#i
b00001000 #7
1#b
1"2
1$'
b00000001 C
1#e
1#*
1#+
1E
1#|
1[
1>
1$9
1r
b00001000 "E
1$m
1"[
1"y
1"r
b00001000 "{
1P
#16
0#?
0"^
b00000010 "A
0$7
b0000000000101110 "u
0$k
0"&
b0000000000110000 j
b0000000000110000 "'
b0000000000000111 /
0b
b00000000000101110 $G
0#Q
b00010011 $3
b00000110 1
0#6
0#i
b0000000000100110 "U
b00000110 $J
b00000010 "#
b00000000000000111 "V
0#b
b00000111 $&
0"2
0$'
b00000111 #y
0#e
0#*
0#+
0E
b0000000000000111 x
0#|
0[
0>
0$9
0r
b00010011 U
0$m
0"[
0"y
0"r
b00000000000110000 #S
0P
#21
b0000000000101110 #r
b0000000000000111 #8
b00000111 "B
b00000010 h
b00001000 6
b0000000001110010 j
b0000000010100010 "'
1b
b00000000001010100 $G
1#Q
b00000110 $2
b00000001 $,
1#6
b00000000000101010 {
1#b
b0000000000000111 "l
1"2
b00000010 C
b00000110 $(
1#*
1E
1$9
b00010011 "E
1$m
1"y
b0000000000101010 $o
b00010011 "{
1P
b00001000 ;
1#?
1"^
1$7
b0000000000101110 #V
b0000000001010100 "u
1$k
1"&
b0000000000110000 $N
b0000000000010101 /
b0000000000101110 F
b00000010 "i
b00000110 "T
b00001000 e
1#i
b00010011 #7
b00000000000010101 "V
b0000000000110000 t
b00000001 $Y
1$'
b00000001 $p
1#e
1#+
b00000111 "J
b0000000000001110 x
1#|
1[
b0000000000000111 $U
1>
1r
1"[
b00000111 ")
1"r
b0000000000110000 "]
b0000000000101010 $4
b00000000010100010 #S
#26
0#?
0"^
b00000011 "A
0$7
b0000000001111001 "u
0$k
0"&
b0000000010000101 j
b0000000010110101 "'
b0000000000100101 /
0b
b00001011 #n
b00000000001111001 $G
0#Q
b00001000 "Z
b00011001 $3
b00001011 "q
b00000111 1
b0000000000001000 y
0#6
0#i
b0000000001001011 "U
b00000111 $J
b00000011 "#
b00000000000100101 "V
b00000000000001000 $`
b0000000001011000 I
0#b
b00001111 $&
b0000000001011000 #c
0"2
0$'
b00001111 #y
0#e
0#*
b00000000001011000 "4
0#+
0E
b0000000000011110 x
0#|
0[
0>
0$9
0r
b00011001 U
0$m
0"[
b0000000000001000 #<
0"y
0"r
b00000000010110101 #S
0P
b00001000 #!
#31
b0000000001111001 #r
b00000111 $K
b0000000000100101 #8
b0000000000101010 ##
b00001111 "B
b00000011 h
b0000000001001101 #W
b00010011 6
b00000110 #O
b0000000010101111 j
b0000000101100100 "'
1b
b0000000001011000 M
b00000000011000100 $G
1#Q
b00000111 $2
b0000000000101010 0
b0000000000010000 y
b00001011 #K
1#6
b00000010 $,
b0000000001001101 #.
b00000000010010011 {
b00000000000011000 $`
b00001011 ^
b0000000100101001 I
1#b
b00001000 $.
b0000000000100101 "l
1"2
b00000011 C
b00000111 .
b00000111 $(
1#*
b00000000100101001 "4
1E
b00000000001001101 (
b00001000 \
1$9
b00000110 #C
b0000000000110000 $$
b0000000000001000 #&
b00011001 "E
1$m
b00000111 $P
1"y
b0000000001011000 #(
b0000000001101001 $o
b00011001 "{
1P
b00010011 ;
1#?
1"^
b00001000 $T
b00001000 R
b00000001 $L
1$7
b00000001 #k
b0000000001111001 #V
b0000000011000100 "u
b00001011 #$
1$k
b00001000 ~
1"&
b0000000000001000 i
b0000000010110101 $N
b0000000001010010 /
b0000000001111001 F
b00000011 "i
b00000111 "T
b0000000000101010 ""
b00010011 e
b00000000000110000 #~
1#i
b00011001 #7
b00000000001010010 "V
b0000000001011000 $a
b0000000010110101 t
b00000010 $Y
b0000000011010001 #c
b0000000000001000 "m
1$'
b00000010 $p
b00000001 #z
1#e
1#+
b00001111 "J
b0000000000101101 x
1#|
1[
b0000000000100101 $U
b00000110 "~
1>
b0000000000110000 "a
1r
1"[
b0000000000011000 #<
b00001111 ")
b00001000 #[
1"r
b0000000010110101 "]
b0000000010010011 $4
b00000000101100100 #S
#36
b00000000010000000 <
b00000101 "t
b00010000 K
b0000000011001000 j
b0000000101111101 "'
b00001100 #n
0b
b00000000010110001 $G
0#Q
b00010000 "S
b0000000000010100 y
0#6
b0000000000111000 "U
b00000100 "#
b00000000000011100 $`
b0000000100111100 I
0#b
b00010100 $&
0"2
b00010100 #y
0#*
b00000000100111100 "4
b0000000010000000 $\
0E
b00000000000000101 #,
0$9
0$m
b0000000010000000 "(
0"y
0P
0#?
0"^
b00000100 "A
0$7
b0000000010110001 "u
0$k
0"&
b00001010 "Z
b0000000001100001 /
b00001110 $3
b00001100 "q
b00001000 1
0#i
b00001000 $J
b00000000001100001 "V
b0000000000000101 "9
b0000000011100100 #c
0$'
0#e
b00000101 '
0#+
b0000000000111100 x
0#|
0[
0>
b0000000000000101 !
0r
b00001110 U
0"[
b0000000000011100 #<
0"r
b00000000101111101 #S
b00001010 #!
